<?xml version="1.0" standalone="no"?>
<!DOCTYPE svg PUBLIC "-//W3C//DTD SVG 20010904//EN"
 "http://www.w3.org/TR/2001/REC-SVG-20010904/DTD/svg10.dtd">
<svg version="1.0" xmlns="http://www.w3.org/2000/svg"
 width="512.000000pt" height="512.000000pt" viewBox="0 0 512.000000 512.000000"
 preserveAspectRatio="xMidYMid meet">

<g transform="translate(0.000000,512.000000) scale(0.100000,-0.100000)"
fill="#000000" stroke="none">
<path d="M2490 4904 c-121 -21 -154 -30 -217 -55 -216 -90 -384 -287 -440
-517 -21 -88 -21 -256 0 -344 66 -272 283 -489 555 -555 88 -21 256 -21 344 0
272 66 489 283 555 555 21 88 21 256 0 344 -66 270 -286 492 -550 553 -67 15
-206 26 -247 19z"/>
<path d="M1929 3378 c-15 -56 -6 -143 19 -201 30 -68 106 -140 175 -166 55
-20 74 -21 437 -21 359 0 382 1 435 21 133 50 222 200 201 341 -11 73 -17 75
-77 30 -322 -243 -809 -239 -1130 10 -20 15 -39 28 -43 28 -3 0 -10 -19 -17
-42z"/>
<path d="M2094 2769 c23 -110 23 -411 1 -565 -43 -292 -156 -593 -313 -829
l-60 -90 419 -3 c231 -1 607 -1 838 0 l419 3 -60 90 c-157 236 -270 537 -313
830 -18 121 -21 418 -6 520 5 33 7 62 6 63 -2 2 -36 -2 -77 -8 -79 -13 -765
-8 -826 5 -31 7 -33 6 -28 -16z"/>
<path d="M1533 1060 c-92 -19 -183 -93 -225 -185 -22 -47 -23 -63 -26 -312 -4
-294 0 -312 63 -339 51 -21 2379 -21 2430 0 63 27 67 45 63 339 -3 251 -4 264
-27 315 -29 64 -112 143 -178 168 -46 18 -100 19 -1053 21 -553 0 -1024 -3
-1047 -7z"/>
</g>
</svg>
